-----BEGIN PGP MESSAGE-----

wV4Dog8LAQLriGUSAQdA/I6k0IvGxyNG2SdSDHrv3bZQDWH18OhTWkcmSF0M
Bxcw3w8KMjr2v69ro5cyZztymEXi5RemRx+oPZGKIZ9N5T+26TaOltH7h8eR
Mu4H03Lp0k4BRsjpFNUBL3HsAuMIemNf4369g+szlpuzjNE1KQhQzZbh87AU
T7KAKygwz0EpOWpx2RHtshDy/bZ1EC8Ia4qDAebameIqCU929OmY1uI=
=3iIr
-----END PGP MESSAGE-----
